{
  "code":10000,
  "PageBO":{
    "total_page": 10,
    "current_page": 1,
    "account_amount":79999,
    "page_size":10,
    "total_count":50,
    "data": [
      {
        "pageSize": 10,
        "currentPage": 1,
        "begin": 0,
        "needPaging": false,
        "billRecordId": 14949,
        "gmtCreated": "2017-04-11 11:00",
        "gmtUpdated": "2017-04-11 11:00",
        "memberId": 5335,
        "type": 3,
        "deal_type": 1,
        "payType": 1,
        "recordNo": null,
        "orderNo": "103201704115335006507",
        "accountNo": null,
        "accountAmount": 0,
        "amount": 0,
        "actualAmount": 0,
        "poundage": null,
        "pointAccount": 0,
        "pointPay": 0,
        "remark": "活动返款",
        "deleteMark": 0,
        "coinAccount": 5,
        "coinPay": 4,
        "orderAmount": null,
        "gmtCreatedStart": "",
        "gmtCreatedEnd": "",
        "tradeStatus": 1,
        "lateBegin": 0
      },
      {
        "pageSize": 10,
        "currentPage": 1,
        "begin": 0,
        "needPaging": false,
        "billRecordId": 7652,
        "gmtCreated": "2017-04-07 19:28",
        "gmtUpdated": "2017-04-07 19:28",
        "memberId": 5335,
        "type": 3,
        "deal_type": 2,
        "payType": 1,
        "recordNo": null,
        "orderNo": "403201704075335008641",
        "accountNo": null,
        "accountAmount": 0,
        "amount": 0,
        "actualAmount": 0,
        "poundage": null,
        "pointAccount": 0,
        "pointPay": 0,
        "remark": "购买金币必中资格",
        "deleteMark": 0,
        "coinAccount": 0,
        "coinPay": 5,
        "orderAmount": null,
        "gmtCreatedStart": "",
        "gmtCreatedEnd": "",
        "tradeStatus": 1,
        "lateBegin": 0
      },
      {
        "pageSize": 10,
        "currentPage": 1,
        "begin": 0,
        "needPaging": false,
        "billRecordId": 7652,
        "gmtCreated": "2017-04-07 19:28",
        "gmtUpdated": "2017-04-07 19:28",
        "memberId": 5335,
        "type": 3,
        "deal_type": 1,
        "payType": 1,
        "recordNo": null,
        "orderNo": "403201704075335008641",
        "accountNo": null,
        "accountAmount": 0,
        "amount": 0,
        "actualAmount": 0,
        "poundage": null,
        "pointAccount": 0,
        "pointPay": 0,
        "remark": "活动返款",
        "deleteMark": 0,
        "coinAccount": 0,
        "coinPay": 5,
        "orderAmount": null,
        "gmtCreatedStart": "",
        "gmtCreatedEnd": "",
        "tradeStatus": 1,
        "lateBegin": 0
      },{
        "pageSize": 10,
        "currentPage": 1,
        "begin": 0,
        "needPaging": false,
        "billRecordId": 7652,
        "gmtCreated": "2017-04-07 19:28",
        "gmtUpdated": "2017-04-07 19:28",
        "memberId": 5335,
        "type": 3,
        "deal_type": 1,
        "payType": 1,
        "recordNo": null,
        "orderNo": "403201704075335008641",
        "accountNo": null,
        "accountAmount": 0,
        "amount": 0,
        "actualAmount": 0,
        "poundage": null,
        "pointAccount": 0,
        "pointPay": 0,
        "remark": "代言人邀请奖励",
        "deleteMark": 0,
        "coinAccount": 0,
        "coinPay": 5,
        "orderAmount": null,
        "gmtCreatedStart": "",
        "gmtCreatedEnd": "",
        "tradeStatus": 1,
        "lateBegin": 0
      },
      {
        "pageSize": 10,
        "currentPage": 1,
        "begin": 0,
        "needPaging": false,
        "billRecordId": 7652,
        "gmtCreated": "2017-04-07 19:28",
        "gmtUpdated": "2017-04-07 19:28",
        "memberId": 5335,
        "type": 3,
        "deal_type": 1,
        "payType": 1,
        "recordNo": null,
        "orderNo": "403201704075335008641",
        "accountNo": null,
        "accountAmount": 0,
        "amount": 0,
        "actualAmount": 0,
        "poundage": null,
        "pointAccount": 0,
        "pointPay": 0,
        "remark": "粉丝订单返款",
        "deleteMark": 0,
        "coinAccount": 0,
        "coinPay": 5,
        "orderAmount": null,
        "gmtCreatedStart": "",
        "gmtCreatedEnd": "",
        "tradeStatus": 1,
        "lateBegin": 0
      },{
        "pageSize": 10,
        "currentPage": 1,
        "begin": 0,
        "needPaging": false,
        "billRecordId": 7652,
        "gmtCreated": "2017-04-07 19:28",
        "gmtUpdated": "2017-04-07 19:28",
        "memberId": 5335,
        "type": 3,
        "deal_type": 1,
        "payType": 1,
        "recordNo": null,
        "orderNo": "403201704075335008641",
        "accountNo": null,
        "accountAmount": 0,
        "amount": 0,
        "actualAmount": 0,
        "poundage": null,
        "pointAccount": 0,
        "pointPay": 0,
        "remark": "完善个人信息",
        "deleteMark": 0,
        "coinAccount": 0,
        "coinPay": 5,
        "orderAmount": null,
        "gmtCreatedStart": "",
        "gmtCreatedEnd": "",
        "tradeStatus": 1,
        "lateBegin": 0
      },{
        "pageSize": 10,
        "currentPage": 1,
        "begin": 0,
        "needPaging": false,
        "billRecordId": 7652,
        "gmtCreated": "2017-04-07 19:28",
        "gmtUpdated": "2017-04-07 19:28",
        "memberId": 5335,
        "type": 3,
        "deal_type": 2,
        "payType": 1,
        "recordNo": null,
        "orderNo": "403201704075335008641",
        "accountNo": null,
        "accountAmount": 0,
        "amount": 0,
        "actualAmount": 0,
        "poundage": null,
        "pointAccount": 0,
        "pointPay": 0,
        "remark": "金币充值",
        "deleteMark": 0,
        "coinAccount": 0,
        "coinPay": 5,
        "orderAmount": null,
        "gmtCreatedStart": "",
        "gmtCreatedEnd": "",
        "tradeStatus": 1,
        "lateBegin": 0
      },{
        "pageSize": 10,
        "currentPage": 1,
        "begin": 0,
        "needPaging": false,
        "billRecordId": 7652,
        "gmtCreated": "2017-04-07 19:28",
        "gmtUpdated": "2017-04-07 19:28",
        "memberId": 5335,
        "type": 2,
        "deal_type": 1,
        "payType": 1,
        "recordNo": null,
        "orderNo": "403201704075335008641",
        "accountNo": null,
        "accountAmount": 0,
        "amount": 0,
        "actualAmount": 0,
        "poundage": null,
        "pointAccount": 0,
        "pointPay": 0,
        "remark": "会员充值",
        "deleteMark": 0,
        "coinAccount": 0,
        "coinPay": 5,
        "orderAmount": null,
        "gmtCreatedStart": "",
        "gmtCreatedEnd": "",
        "tradeStatus": 1,
        "lateBegin": 0
      },
      {
        "pageSize": 10,
        "currentPage": 1,
        "begin": 0,
        "needPaging": false,
        "billRecordId": 7652,
        "gmtCreated": "2017-04-07 19:28",
        "gmtUpdated": "2017-04-07 19:28",
        "memberId": 5335,
        "type": 3,
        "deal_type": 5,
        "payType": 1,
        "recordNo": null,
        "orderNo": "403201704075335008641",
        "accountNo": null,
        "accountAmount": 0,
        "amount": 0,
        "actualAmount": 0,
        "poundage": null,
        "pointAccount": 0,
        "pointPay": 0,
        "remark": "提现成功",
        "deleteMark": 0,
        "coinAccount": 0,
        "coinPay": 5,
        "orderAmount": null,
        "gmtCreatedStart": "",
        "gmtCreatedEnd": "",
        "tradeStatus": 1,
        "lateBegin": 0
      },{
        "pageSize": 10,
        "currentPage": 1,
        "begin": 0,
        "needPaging": false,
        "billRecordId": 7652,
        "gmtCreated": "2017-04-07 19:28",
        "gmtUpdated": "2017-04-07 19:28",
        "memberId": 5335,
        "type": 3,
        "deal_type": 5,
        "payType": 1,
        "recordNo": null,
        "orderNo": "403201704075335008641",
        "accountNo": null,
        "accountAmount": 0,
        "amount": 0,
        "actualAmount": 0,
        "poundage": null,
        "pointAccount": 0,
        "pointPay": 0,
        "remark": "等待平台返款",
        "deleteMark": 0,
        "coinAccount": 0,
        "coinPay": 5,
        "orderAmount": null,
        "gmtCreatedStart": "",
        "gmtCreatedEnd": "",
        "tradeStatus": 1,
        "lateBegin": 0
      }
    ]
  }

}
